Assignment_3
…
## OGR data source with driver: GeoJSON 
## Source: "gz_2010_us_050_00_20m.json", layer: "OGRGeoJSON"
## with 3221 features
## It has 6 fields

usa.counties.mapping

## class       : SpatialPolygonsDataFrame 
## features    : 3221 
## extent      : -179.1473, 179.7785, 17.88481, 71.35256  (xmin, xmax, ymin, ymax)
## coord. ref. : +proj=longlat +datum=WGS84 +no_defs +ellps=WGS84 +towgs84=0,0,0 
## variables   : 6
## # A tibble: 3,221 × 6
##            GEO_ID  STATE COUNTY      NAME   LSAD CENSUSAREA
## *          <fctr> <fctr> <fctr>    <fctr> <fctr>      <dbl>
## 1  0500000US01001     01    001   Autauga County    594.436
## 2  0500000US01009     01    009    Blount County    644.776
## 3  0500000US01017     01    017  Chambers County    596.531
## 4  0500000US01021     01    021   Chilton County    692.854
## 5  0500000US01033     01    033   Colbert County    592.619
## 6  0500000US01045     01    045      Dale County    561.150
## 7  0500000US01051     01    051    Elmore County    618.485
## 8  0500000US01065     01    065      Hale County    643.943
## 9  0500000US01079     01    079  Lawrence County    690.678
## 10 0500000US01083     01    083 Limestone County    559.936
## # ... with 3,211 more rows
…
